^D:\SchoolWork\C++\MicroservicesCalcCpp\Release\Generated.lib
D:\SchoolWork\C++\MicroservicesCalcCpp\Generated\Release\vcpkg.applocal.log
^D:\SchoolWork\C++\MicroservicesCalcCpp\Release\Generated.lib
D:\SchoolWork\C++\MicroservicesCalcCpp\Generated\Release\vcpkg.applocal.log
^D:\SchoolWork\C++\MicroservicesCalcCpp\Release\Generated.lib
D:\SchoolWork\C++\MicroservicesCalcCpp\Generated\Release\vcpkg.applocal.log
^D:\SchoolWork\C++\MicroservicesCalcCpp\Release\Generated.lib
D:\SchoolWork\C++\MicroservicesCalcCpp\Generated\Release\vcpkg.applocal.log
