^D:\SCHOOLWORK\CNA TEMA_2\CLIENT\DEBUG\CLIENT.OBJ|D:\SCHOOLWORK\CNA TEMA_2\DEBUG\GENERATED.LIB
D:\SCHOOLWORK\CNA TEMA_2\DEBUG\CLIENT.EXE
D:\SCHOOLWORK\CNA TEMA_2\DEBUG\CLIENT.ILK
D:\SCHOOLWORK\CNA TEMA_2\DEBUG\CLIENT.PDB
